…
co2_emission: kg CO2/person/year (kilograms of CO2 emitted per person per year)

Note: the people aren’t emitting the CO2. The whole food system is in order to produce the food product.

So the data provided is by weight and it is split into one person’s effect.

Let’s get a better sense of the extent of each of these variables.

Variable Extent

# how many countries?
food_consumption %>% 
  dplyr::count(country, sort=TRUE)

## # A tibble: 130 x 2
##    country        n
##    <chr>      <int>
##  1 Albania       11
##  2 Algeria       11
##  3 Angola        11
##  4 Argentina     11
##  5 Armenia       11
##  6 Australia     11
##  7 Austria       11
##  8 Bahamas       11
##  9 Bangladesh    11
## 10 Barbados      11
## # … with 120 more rows
…
