…
upper = spotify %>% 
  filter(lowercase == FALSE)

lower = spotify %>% 
  filter(lowercase)

Can see that some artists put out several tracks (albums for some) using lowercase track names.

lower %>% 
  group_by(track_artist) %>% 
  summarise(lowercase_songs = n()) %>% 
  arrange(desc(lowercase_songs))

## # A tibble: 181 x 2
##    track_artist    lowercase_songs
##    <chr>                     <int>
##  1 Billie Eilish                20
##  2 Ariana Grande                19
##  3 blackbear                     9
##  4 joan                          7
##  5 Musiq Soulchild               6
##  6 tha Supreme                   6
##  7 chillwagon                    5
##  8 iann dior                     5
##  9 schafter                      5
## 10 flor                          4
## # … with 171 more rows
…
