…
Let’s try coloring by the type of tree, too.

sf_trees %>% 
  count(species, sort=TRUE)

## # A tibble: 570 x 2
##    species                                                                     n
##    <chr>                                                                   <int>
##  1 Platanus x hispanica :: Sycamore: London Plane                          11502
##  2 Tree(s) ::                                                              10391
##  3 Metrosideros excelsa :: New Zealand Xmas Tree                            8684
##  4 Lophostemon confertus :: Brisbane Box                                    8486
##  5 Tristaniopsis laurina :: Swamp Myrtle                                    7173
##  6 Pittosporum undulatum :: Victorian Box                                   7086
##  7 Prunus cerasifera :: Cherry Plum                                         6700
##  8 Magnolia grandiflora :: Southern Magnolia                                6250
##  9 Ficus microcarpa nitida 'Green Gem' :: Indian Laurel Fig Tree 'Green G…  5623
## 10 Arbutus 'Marina' :: Hybrid Strawberry Tree                               5611
## # … with 560 more rows
…
