…
  # smoosh the list into one tibble
  show_run <- bind_rows(df_list)
  
  return(show_run)
  
}

And here it is in action:

# simpsons, first ten seasons, plus thirteenth for good measure
grab_imdb_ratings("tt0096697", c(1:10, 13))

## # A tibble: 248 x 6
##    season episode air_date   title                             rating votes
##     <dbl>   <int> <date>     <chr>                              <dbl> <dbl>
##  1      1       1 1989-12-17 Simpsons Roasting on an Open Fire    8.2  5694
##  2      1       2 1990-01-14 Bart the Genius                      7.7  3636
##  3      1       3 1990-01-21 Homer's Odyssey                      7.4  3188
##  4      1       4 1990-01-28 There's No Disgrace Like Home        7.7  3132
##  5      1       5 1990-02-04 Bart the General                     8    3178
##  6      1       6 1990-02-11 Moaning Lisa                         7.6  3071
##  7      1       7 1990-02-18 The Call of the Simpsons             7.8  2955
##  8      1       8 1990-02-25 The Telltale Head                    7.7  2872
##  9      1       9 1990-03-18 Life on the Fast Lane                7.5  2858
## 10      1      10 1990-03-25 Homer's Night Out                    7.4  2760
## # … with 238 more rows
…
