…
How Tidyverse does it

I find it much easier to manipulate the column names. In comes everything() to the rescue. Combining with select(), you can get pretty fancy.

library(tidyverse)

rainfall <- read_csv('https://raw.githubusercontent.com/rfordatascience/tidytuesday/master/data/2020/2020-01-07/rainfall.csv') %>% 
  mutate(decade = year %/% 10 * 10)

# drop it right into place
rainfall %>% 
  select(station_code:year, decade, everything())

## # A tibble: 179,273 x 12
##    station_code city_name  year decade month day   rainfall period quality   lat
##    <chr>        <chr>     <dbl>  <dbl> <chr> <chr>    <dbl>  <dbl> <chr>   <dbl>
##  1 009151       Perth      1967   1960 01    01          NA     NA <NA>    -32.0
##  2 009151       Perth      1967   1960 01    02          NA     NA <NA>    -32.0
##  3 009151       Perth      1967   1960 01    03          NA     NA <NA>    -32.0
##  4 009151       Perth      1967   1960 01    04          NA     NA <NA>    -32.0
##  5 009151       Perth      1967   1960 01    05          NA     NA <NA>    -32.0
##  6 009151       Perth      1967   1960 01    06          NA     NA <NA>    -32.0
##  7 009151       Perth      1967   1960 01    07          NA     NA <NA>    -32.0
##  8 009151       Perth      1967   1960 01    08          NA     NA <NA>    -32.0
##  9 009151       Perth      1967   1960 01    09          NA     NA <NA>    -32.0
## 10 009151       Perth      1967   1960 01    10          NA     NA <NA>    -32.0
## # … with 179,263 more rows, and 2 more variables: long <dbl>,
## #   station_name <chr>
…
