…
Source: TidyTuesday

attendance <- readr::read_csv('https://raw.githubusercontent.com/rfordatascience/tidytuesday/master/data/2020/2020-02-04/attendance.csv')
standings <- readr::read_csv('https://raw.githubusercontent.com/rfordatascience/tidytuesday/master/data/2020/2020-02-04/standings.csv')
games <- readr::read_csv('https://raw.githubusercontent.com/rfordatascience/tidytuesday/master/data/2020/2020-02-04/games.csv')

Ask Some Questions of the Data

How Many Teams?

# how many teams?
attendance %>% 
  count(team, sort=TRUE)

## # A tibble: 32 x 2
##    team           n
##    <chr>      <int>
##  1 New York     680
##  2 Arizona      340
##  3 Atlanta      340
##  4 Baltimore    340
##  5 Buffalo      340
##  6 Carolina     340
##  7 Chicago      340
##  8 Cincinnati   340
##  9 Cleveland    340
## 10 Dallas       340
## # … with 22 more rows
…
# --> spans 2000 to 2019

So we have the attendance data for 32 teams for 2000 to 2019

The README mentions that there is a week each year where no game is played by each team

# extent of each team's year span
attendance %>% 
  group_by(team) %>% 
  summarise(max_year = max(year),
            min_year = min(year))

## # A tibble: 32 x 3
##    team       max_year min_year
##    <chr>         <dbl>    <dbl>
##  1 Arizona        2019     2000
##  2 Atlanta        2019     2000
##  3 Baltimore      2019     2000
##  4 Buffalo        2019     2000
##  5 Carolina       2019     2000
##  6 Chicago        2019     2000
##  7 Cincinnati     2019     2000
##  8 Cleveland      2019     2000
##  9 Dallas         2019     2000
## 10 Denver         2019     2000
## # … with 22 more rows
…
