Zach Bogart - Pizza Cost
…
pizza

# A tibble: 42 × 3
   name           kind   cost
   <chr>          <chr> <int>
 1 The Degenerate sm       20
 2 The Degenerate lg       30
 3 The Degenerate gf       26
 4 Waldorf        sm       20
 5 Waldorf        lg       26
 6 Waldorf        gf       30
 7 Cheese         sm       15
 8 Cheese         lg       25
 9 Cheese         gf       19
10 Brooklyn       sm       20
# … with 32 more rows
…
