…
Use Longer Passwords

Looks like longer passwords take longer to crack. Makes sense.

# what passwords take a while to crack?
passwords %>% 
  arrange(desc(offline_crack_sec))

## # A tibble: 455 x 10
##     rank password category value time_unit offline_crack_s… rank_alt strength
##    <dbl> <chr>    <chr>    <dbl> <chr>                <dbl>    <dbl>    <dbl>
##  1     1 password passwor…  6.91 years                 2.17        1        8
##  2     8 baseball sport     6.91 years                 2.17        8        4
##  3     9 football sport     6.91 years                 2.17        9        7
##  4    18 jennifer name      6.91 years                 2.17       18        9
##  5    22 superman name      6.91 years                 2.17       22       10
##  6    41 michelle name      6.91 years                 2.17       41        8
##  7    43 sunshine fluffy    6.91 years                 2.17       43        9
##  8    53 starwars nerdy-p…  6.91 years                 2.17       53        8
##  9    66 computer nerdy-p…  6.91 years                 2.17       66       10
## 10    74 corvette cool-ma…  6.91 years                 2.17       74        8
## # … with 445 more rows, and 2 more variables: font_size <dbl>, length <int>
…
